finished,expected_hours,total_sp
1,168,15
0,168,32
0,168,28
1,336,12
1,336,33
0,336,78
1,168,25
1,168,10
0,168,65
0,168,85
1,504,85
1,672,55
1,336,46
0,168,70
0,168,100
0,168,40
1,168,5
1,420,55
1,436.8,60
0,436.8,85
0,168,85
0,436.8,73
1,84,5
1,84,7
1,84,10
0,33.6,10
0,12,10
0,55,10
0,55,5
1,55,1
1,48,1
1,48,2
1,24,1
